{
  "count": 5922,
  "page": 1,
  "totalPages": 987,
  "nextPage": 2,
  "previousPage": 0,
  "showingFrom": 1,
  "showingTo": 6,
  "items": [
      {
          "id": 40606,
          "tipo": "Notícia",
          "titulo": "IBGE realiza 35 atendimentos no primeiro dia da Caravana Federativa no Pará",
          "introducao": "IBGE realiza atendimentos no primeiro dia da Caravana Federativa realizada em Belém, capital do Pará. O Instituto Brasileiro de Geografia e Estatística (IBGE) realizou nesta quinta-feira, 4, os primeiros atendimentos na Caravana Federativa do Pará,...",
          "data_publicacao": "04/07/2024 07:11:33",
          "produto_id": 0,
          "produtos": "",
          "editorias": "ibge",
          "imagens": "{\"image_intro\":\"images\\/agenciadenoticias\\/ibge\\/2024_07\\/foto-18-21-41-2.jpeg\",\"float_intro\":\"\",\"image_intro_alt\":\"\",\"image_intro_caption\":\"\",\"image_fulltext\":\"images\\/agenciadenoticias\\/ibge\\/2024_07\\/foto-18-21-41-2.jpeg\",\"float_fulltext\":\"\",\"image_fulltext_alt\":\"\",\"image_fulltext_caption\":\"\"}",
          "produtos_relacionados": "",
          "destaque": true,
          "link": "http://agenciadenoticias.ibge.gov.br/agencia-noticias/2012-agencia-de-noticias/noticias/40606-ibge-realiza-35-atendimentos-no-primeiro-dia-da-caravana-federativa-no-para.html"
      },
      {
          "id": 40601,
          "tipo": "Notícia",
          "titulo": "ENCE abrirá pré-inscrições para o curso Inteligência Artificial em Políticas Públicas",
          "introducao": "A Escola Nacional de Ciências Estatísticas (ENCE) abrirá pré-inscrições em 5 de julho para o curso Inteligência Artificial em Políticas Públicas, turma de 2024. O curso tem o objetivo de apresentar e discutir o uso de Inteligência Artificial (IA), em...",
          "data_publicacao": "04/07/2024 10:08:26",
          "produto_id": 0,
          "produtos": "",
          "editorias": "ibge",
          "imagens": "{\"image_intro\":\"images\\/agenciadenoticias\\/ibge\\/2024_07\\/trilha-home.jpg\",\"float_intro\":\"\",\"image_intro_alt\":\"\",\"image_intro_caption\":\"\",\"image_fulltext\":\"images\\/agenciadenoticias\\/ibge\\/2024_07\\/trilha-home.jpg\",\"float_fulltext\":\"\",\"image_fulltext_alt\":\"\",\"image_fulltext_caption\":\"\"}",
          "produtos_relacionados": "",
          "destaque": true,
          "link": "http://agenciadenoticias.ibge.gov.br/agencia-noticias/2012-agencia-de-noticias/noticias/40601-ence-abrira-pre-inscricoes-para-o-curso-inteligencia-artificial-em-politicas-publicas.html"
      },
      {
          "id": 40549,
          "tipo": "Notícia",
          "titulo": "Produção industrial recua 0,9% em maio, segundo mês seguido de queda",
          "introducao": "O setor de veículos automotores, reboques e carrocerias recuou 11,7% em maio - Foto: Roberto Dziura Jr/AEN Na passagem de abril para maio, a produção industrial do país recuou 0,9%. Foi o segundo mês consecutivo de queda, período em que acumulou perda de...",
          "data_publicacao": "03/07/2024 09:00:00",
          "produto_id": 9294,
          "produtos": "9294|PIM-PF Brasil#pimpf1|pesquisa-industrial-mensal-producao-fisica-brasil|2209",
          "editorias": "economicas",
          "imagens": "{\"image_intro\":\"images\\/agenciadenoticias\\/estatisticas_economicas\\/2024_07\\/PIM-Br_THUMBE-Roberto-DziuraJr-AEN.jpg\",\"float_intro\":\"\",\"image_intro_alt\":\"\",\"image_intro_caption\":\"\",\"image_fulltext\":\"images\\/agenciadenoticias\\/estatisticas_economicas\\/2024_07\\/PIM-Br_HOME-Roberto-DziuraJr-AEN.jpg\",\"float_fulltext\":\"\",\"image_fulltext_alt\":\"\",\"image_fulltext_caption\":\"\"}",
          "produtos_relacionados": "9294",
          "destaque": true,
          "link": "http://agenciadenoticias.ibge.gov.br/agencia-noticias/2012-agencia-de-noticias/noticias/40549-producao-industrial-recua-0-9-em-maio-segundo-mes-seguido-de-queda.html"
      },
      {
          "id": 40548,
          "tipo": "Release",
          "titulo": "Produção industrial recua 0,9% em maio",
          "introducao": "Em maio de 2024, a produção industrial nacional recuou 0,9% na comparação com abril, na série com ajuste sazonal, a segunda taxa negativa consecutiva, período em que acumulou perda de 1,7%. A média móvel trimestral teve variação negativa de 0,2% no...",
          "data_publicacao": "03/07/2024 09:00:00",
          "produto_id": 9294,
          "produtos": "9294|PIM-PF Brasil#pimpf1|pesquisa-industrial-mensal-producao-fisica-brasil|2209",
          "editorias": "economicas",
          "imagens": "{\"image_intro\":\"images\\/agenciadenoticias\\/releases\\/PIM-PF-BR_Release1.png\",\"float_intro\":\"\",\"image_intro_alt\":\"\",\"image_intro_caption\":\"\",\"image_fulltext\":\"images\\/agenciadenoticias\\/releases\\/PIM-PF-BR_Release1.png\",\"float_fulltext\":\"\",\"image_fulltext_alt\":\"\",\"image_fulltext_caption\":\"\"}",
          "produtos_relacionados": "9294",
          "destaque": true,
          "link": "http://agenciadenoticias.ibge.gov.br/agencia-sala-de-imprensa/2013-agencia-de-noticias/releases/40548-producao-industrial-recua-0-9-em-maio.html"
      },
      {
          "id": 40569,
          "tipo": "Notícia",
          "titulo": "IBGE assina protocolo de intenções com Ministério da Previdência Social",
          "introducao": "O ministro da Previdência Social, Carlos Lupi, e o presidente do IBGE, Marcio Pochmann, firmaram o documento visando estabelecer Acordo de Cooperação Técnica - Foto: Marcio Costa/Agência IBGE Notícias O Instituto Brasileiro de Geografia e Estatística...",
          "data_publicacao": "02/07/2024 05:06:08",
          "produto_id": 0,
          "produtos": "",
          "editorias": "ibge",
          "imagens": "{\"image_intro\":\"images\\/agenciadenoticias\\/ibge\\/2024_07\\/IBGE_CarlosLuoi_THUMB.jpg\",\"float_intro\":\"\",\"image_intro_alt\":\"\",\"image_intro_caption\":\"\",\"image_fulltext\":\"images\\/agenciadenoticias\\/ibge\\/2024_07\\/IBGE_CarlosLuoi_HOME.jpg\",\"float_fulltext\":\"\",\"image_fulltext_alt\":\"\",\"image_fulltext_caption\":\"\"}",
          "produtos_relacionados": "",
          "destaque": true,
          "link": "http://agenciadenoticias.ibge.gov.br/agencia-noticias/2012-agencia-de-noticias/noticias/40569-ibge-assina-protocolo-de-intencoes-com-ministerio-da-previdencia-social.html"
      },
      {
          "id": 40556,
          "tipo": "Notícia",
          "titulo": "Hub Regional para Big Data promove oficina sobre indicadores de mudanças climáticas",
          "introducao": "O V Workshop sobre o Uso de Big Data para Estatísticas Oficiais foi realizado entre os dias 24 e 28 de junho com o tema “ARIES (Artificial Intelligence for Environment and Sustainability) para Indicadores de Mitigação e Adaptação frente às Mudanças...",
          "data_publicacao": "02/07/2024 01:49:05",
          "produto_id": 0,
          "produtos": "",
          "editorias": "ibge",
          "imagens": "{\"image_intro\":\"images\\/agenciadenoticias\\/ibge\\/2024_05\\/ENCE_HUB_Thumb.jpg\",\"float_intro\":\"\",\"image_intro_alt\":\"\",\"image_intro_caption\":\"\",\"image_fulltext\":\"images\\/agenciadenoticias\\/ibge\\/2024_05\\/ENCE_HUB_HOME.jpg\",\"float_fulltext\":\"\",\"image_fulltext_alt\":\"\",\"image_fulltext_caption\":\"\"}",
          "produtos_relacionados": "",
          "destaque": true,
          "link": "http://agenciadenoticias.ibge.gov.br/agencia-noticias/2012-agencia-de-noticias/noticias/40556-hub-regional-para-big-data-promove-oficina-sobre-indicadores-de-mudancas-climaticas.html"
      }
  ]
}